Figures and tables: K. pneumoniae
…
amr.qrdr <- subset(amr.qrdr, 
               (ref_name == "GyrA" & codon_posn >= 67 & codon_posn <= 106) |
               (ref_name == "GyrB" & codon_posn >= 426 & codon_posn <= 464) |
               (ref_name == "ParC" & codon_posn >= 56 & codon_posn <= 108) |
               (ref_name == "ParE" & codon_posn >= 365 & codon_posn <= 525) )

# make one hot coded df ----------------------------------------------------

amr.qrdr %>% 
  select(sample,ref_name) 

## # A tibble: 45 x 2
##    sample      ref_name
##    <chr>       <chr>   
##  1 34154_7#249 ParC    
##  2 34154_7#283 GyrA    
##  3 34154_7#283 GyrA    
##  4 34154_7#375 GyrB    
##  5 34154_7#20  GyrA    
##  6 34154_7#268 GyrA    
##  7 34154_7#268 GyrA    
##  8 34154_7#62  GyrA    
##  9 34154_7#100 GyrA    
## 10 34154_7#262 GyrA    
## #  with 35 more rows
…
